@startuml

title __DAO's Class Diagram__\n

  namespace  {
    namespace om.gfi {
      namespace dao {
        interface com.gfi.dao.DocumentRepository {
            {abstract} + findById()
            {abstract} + findByName()
            {abstract} + findByNomDoc()
        }
      }
    }
  }
  

  namespace  {
    namespace om.gfi {
      namespace dao {
        interface com.gfi.dao.RepertoireRepository {
            {abstract} + findByCodeRepertoire()
            {abstract} + findByNomRepertoire()
            {abstract} + getAllIds()
        }
      }
    }
  }
  

  namespace  {
    namespace om.gfi {
      namespace dao {
        interface com.gfi.dao.RoleRepository {
            {abstract} + findByName()
        }
      }
    }
  }
  

  namespace  {
    namespace om.gfi {
      namespace dao {
        interface com.gfi.dao.UserRepository {
            {abstract} + existsByEmail()
            {abstract} + existsByUsername()
            {abstract} + findByEmail()
            {abstract} + findByEmailAndPassword()
            {abstract} + findById()
            {abstract} + findByPassword()
            {abstract} + findByUsername()
        }
      }
    }
  }
  



right footer


PlantUML diagram generated by SketchIt! (https://bitbucket.org/pmesmeur/sketch.it)
For more information about this tool, please contact philippe.mesmeur@gmail.com
endfooter

@enduml
