@startuml

title __CONTROLLER's Class Diagram__\n

  namespace  {
    namespace om.gfi {
      namespace controller {
        class com.gfi.controller.AuthRestAPIs {
            ~ authenticationManager : AuthenticationManager
            ~ encoder : PasswordEncoder
            + authenticateUser()
            + checkEmail()
            + getAllUsers()
            + getUser()
            + getUserImageName()
            + signup()
            + updateImageName()
            + updatePassword()
            + updateUsername()
        }
      }
    }
  }
  

  namespace  {
    namespace om.gfi {
      namespace controller {
        class com.gfi.controller.DocumentController {
            ~ files : List<String>
            ~ repertoires : List<Repertoire>
            + delete()
            + deleteContentDirectory()
            + deplaceDocument()
            + downloadFile()
            + findByName()
            + getAllDocument()
            + getAllTutorials()
            + getContentFile()
            + handleFileUpload()
            + handleFilesToRepertoire()
            + update()
        }
      }
    }
  }
  

  namespace  {
    namespace om.gfi {
      namespace controller {
        class com.gfi.controller.RepertoireController {
            + RepertoireController()
            + create()
            + delete()
            + findAll()
            + getAllRepertoire()
            + update()
        }
      }
    }
  }
  

  namespace  {
    namespace om.gfi {
      namespace controller {
        class com.gfi.controller.TestRestAPIs {
            + adminAccess()
            + userAccess()
        }
      }
    }
  }
  

  namespace  {
    namespace om.gfi {
      namespace controller {
        class com.gfi.controller.UploadController {
            ~ files : List<String>
            + getFile()
            + getListFiles()
            + handleFileUpload()
        }
      }
    }
  }
  

  namespace  {
    namespace om.gfi {
      namespace controller {
        class com.gfi.controller.UserController {
            + getAllUser()
        }
      }
    }
  }
  

  com.gfi.controller.AuthRestAPIs o-- com.gfi.security.jwt.JwtProvider : jwtProvider
  com.gfi.controller.AuthRestAPIs o-- com.gfi.message.response.JwtResponse : jwtresponse
  com.gfi.controller.AuthRestAPIs o-- com.gfi.dao.RoleRepository : roleRepository
  com.gfi.controller.AuthRestAPIs o-- com.gfi.model.User : user
  com.gfi.controller.AuthRestAPIs o-- com.gfi.dao.UserRepository : userRepository
  com.gfi.controller.AuthRestAPIs o-- com.gfi.service.Impl.UserServiceImpl : utilisateurService
  com.gfi.controller.DocumentController o-- com.gfi.dao.DocumentRepository : documentRepository
  com.gfi.controller.DocumentController o-- com.gfi.service.Impl.DocumentServiceImpl : documentService
  com.gfi.controller.DocumentController o-- com.gfi.service.Impl.RepertoireServiceImpl : repertoireService
  com.gfi.controller.DocumentController o-- com.gfi.mapper.DocumentMapper : documentMapper
  com.gfi.controller.DocumentController o-- com.gfi.mapper.RepertoireMapper : repertoireMapper
  com.gfi.controller.RepertoireController o-- com.gfi.mapper.RepertoireMapper : repertoireMapper
  com.gfi.controller.RepertoireController o-- com.gfi.service.Impl.RepertoireServiceImpl : repertoireService
  com.gfi.controller.UploadController o-- com.gfi.service.IStorageService : storageService
  com.gfi.controller.UserController o-- com.gfi.dao.UserRepository : userRepository


right footer


PlantUML diagram generated by SketchIt! (https://bitbucket.org/pmesmeur/sketch.it)
For more information about this tool, please contact philippe.mesmeur@gmail.com
endfooter

@enduml
