@startuml

title __GEDAPPLICATION's Class Diagram__\n

  namespace  {
    class MavenWrapperDownloader {
    }
  }
  

  namespace  {
    namespace om.gfi {
      class com.gfi.GedapplicationApplication {
      }
    }
  }
  

  namespace  {
    namespace om.gfi {
      namespace constant {
        class com.gfi.constant.ApplicationConfig {
        }
      }
    }
  }
  

  namespace  {
    namespace om.gfi {
      namespace constant {
        class com.gfi.constant.CustomException {
        }
      }
    }
  }
  

  namespace  {
    namespace om.gfi {
      namespace constant {
        class com.gfi.constant.FileUtil {
        }
      }
    }
  }
  

  namespace  {
    namespace om.gfi {
      namespace controller {
        class com.gfi.controller.AuthRestAPIs {
        }
      }
    }
  }
  

  namespace  {
    namespace om.gfi {
      namespace controller {
        class com.gfi.controller.DocumentController {
        }
      }
    }
  }
  

  namespace  {
    namespace om.gfi {
      namespace controller {
        class com.gfi.controller.RepertoireController {
        }
      }
    }
  }
  

  namespace  {
    namespace om.gfi {
      namespace controller {
        class com.gfi.controller.TestRestAPIs {
        }
      }
    }
  }
  

  namespace  {
    namespace om.gfi {
      namespace controller {
        class com.gfi.controller.UploadController {
        }
      }
    }
  }
  

  namespace  {
    namespace om.gfi {
      namespace controller {
        class com.gfi.controller.UserController {
        }
      }
    }
  }
  

  namespace  {
    namespace om.gfi {
      namespace dao {
        interface com.gfi.dao.DocumentRepository {
        }
      }
    }
  }
  

  namespace  {
    namespace om.gfi {
      namespace dao {
        interface com.gfi.dao.RepertoireRepository {
        }
      }
    }
  }
  

  namespace  {
    namespace om.gfi {
      namespace dao {
        interface com.gfi.dao.RoleRepository {
        }
      }
    }
  }
  

  namespace  {
    namespace om.gfi {
      namespace dao {
        interface com.gfi.dao.UserRepository {
        }
      }
    }
  }
  

  namespace  {
    namespace om.gfi {
      namespace dto {
        class com.gfi.dto.DocumentDTO {
        }
      }
    }
  }
  

  namespace  {
    namespace om.gfi {
      namespace dto {
        class com.gfi.dto.RepertoireDTO {
        }
      }
    }
  }
  

  namespace  {
    namespace om.gfi {
      namespace dto {
        namespace Response {
          class com.gfi.dto.Response.AllRepertoireResponseDTO {
          }
        }
      }
    }
  }
  

  namespace  {
    namespace om.gfi {
      namespace dto {
        namespace Response {
          class com.gfi.dto.Response.BaseResponseDTO {
          }
        }
      }
    }
  }
  

  namespace  {
    namespace om.gfi {
      namespace dto {
        namespace Response {
          class com.gfi.dto.Response.DeplacerDocumentResponceDTO {
          }
        }
      }
    }
  }
  

  namespace  {
    namespace om.gfi {
      namespace dto {
        namespace Response {
          class com.gfi.dto.Response.ImageResponseDTO {
          }
        }
      }
    }
  }
  

  namespace  {
    namespace om.gfi {
      namespace dto {
        namespace request {
          class com.gfi.dto.request.EditRequest {
          }
        }
      }
    }
  }
  

  namespace  {
    namespace om.gfi {
      namespace exception {
        class com.gfi.exception.FileStorageException {
        }
      }
    }
  }
  

  namespace  {
    namespace om.gfi {
      namespace exception {
        class com.gfi.exception.MyFileNotFoundException {
        }
      }
    }
  }
  

  namespace  {
    namespace om.gfi {
      namespace exception {
        class com.gfi.exception.NotFoundException {
        }
      }
    }
  }
  

  namespace  {
    namespace om.gfi {
      namespace mapper {
        interface com.gfi.mapper.DocumentMapper {
        }
      }
    }
  }
  

  namespace  {
    namespace om.gfi {
      namespace mapper {
        class com.gfi.mapper.DocumentMapperImpl {
        }
      }
    }
  }
  

  namespace  {
    namespace om.gfi {
      namespace mapper {
        interface com.gfi.mapper.RepertoireMapper {
        }
      }
    }
  }
  

  namespace  {
    namespace om.gfi {
      namespace mapper {
        class com.gfi.mapper.RepertoireMapperImpl {
        }
      }
    }
  }
  

  namespace  {
    namespace om.gfi {
      namespace message.request {
        class com.gfi.message.request.LoginForm {
        }
      }
    }
  }
  

  namespace  {
    namespace om.gfi {
      namespace message.request {
        class com.gfi.message.request.SignUpForm {
        }
      }
    }
  }
  

  namespace  {
    namespace om.gfi {
      namespace message.response {
        class com.gfi.message.response.JwtResponse {
        }
      }
    }
  }
  

  namespace  {
    namespace om.gfi {
      namespace model {
        class com.gfi.model.Document {
        }
      }
    }
  }
  

  namespace  {
    namespace om.gfi {
      namespace model {
        class com.gfi.model.Repertoire {
        }
      }
    }
  }
  

  namespace  {
    namespace om.gfi {
      namespace model {
        class com.gfi.model.Role {
        }
      }
    }
  }
  

  namespace  {
    namespace om.gfi {
      namespace model {
        enum RoleName {
        }
      }
    }
  }
  

  namespace  {
    namespace om.gfi {
      namespace model {
        class com.gfi.model.User {
        }
      }
    }
  }
  

  namespace  {
    namespace om.gfi {
      namespace security {
        class com.gfi.security.JwtTokenFilter {
        }
      }
    }
  }
  

  namespace  {
    namespace om.gfi {
      namespace security {
        class com.gfi.security.JwtTokenFilterConfigurer {
        }
      }
    }
  }
  

  namespace  {
    namespace om.gfi {
      namespace security {
        class com.gfi.security.JwtTokenProvider {
        }
      }
    }
  }
  

  namespace  {
    namespace om.gfi {
      namespace security {
        class com.gfi.security.MyUserDetails {
        }
      }
    }
  }
  

  namespace  {
    namespace om.gfi {
      namespace security {
        class com.gfi.security.WebSecurityConfig {
        }
      }
    }
  }
  

  namespace  {
    namespace om.gfi {
      namespace security {
        namespace jwt {
          class com.gfi.security.jwt.JwtAuthEntryPoint {
          }
        }
      }
    }
  }
  

  namespace  {
    namespace om.gfi {
      namespace security {
        namespace jwt {
          class com.gfi.security.jwt.JwtAuthTokenFilter {
          }
        }
      }
    }
  }
  

  namespace  {
    namespace om.gfi {
      namespace security {
        namespace jwt {
          class com.gfi.security.jwt.JwtProvider {
          }
        }
      }
    }
  }
  

  namespace  {
    namespace om.gfi {
      namespace security {
        namespace services {
          class com.gfi.security.services.UserDetailsServiceImpl {
          }
        }
      }
    }
  }
  

  namespace  {
    namespace om.gfi {
      namespace security {
        namespace services {
          class com.gfi.security.services.UserPrinciple {
          }
        }
      }
    }
  }
  

  namespace  {
    namespace om.gfi {
      namespace service {
        interface com.gfi.service.DocumentService {
        }
      }
    }
  }
  

  namespace  {
    namespace om.gfi {
      namespace service {
        interface com.gfi.service.IStorageService {
        }
      }
    }
  }
  

  namespace  {
    namespace om.gfi {
      namespace service {
        namespace Impl {
          class com.gfi.service.Impl.DocumentServiceImpl {
          }
        }
      }
    }
  }
  

  namespace  {
    namespace om.gfi {
      namespace service {
        namespace Impl {
          class com.gfi.service.Impl.RepertoireServiceImpl {
          }
        }
      }
    }
  }
  

  namespace  {
    namespace om.gfi {
      namespace service {
        namespace Impl {
          class com.gfi.service.Impl.StorageService {
          }
        }
      }
    }
  }
  

  namespace  {
    namespace om.gfi {
      namespace service {
        namespace Impl {
          class com.gfi.service.Impl.UserServiceImpl {
          }
        }
      }
    }
  }
  

  namespace  {
    namespace om.gfi {
      namespace service {
        interface com.gfi.service.RepertoireService {
        }
      }
    }
  }
  

  namespace  {
    namespace om.gfi {
      namespace service {
        interface com.gfi.service.UserService {
        }
      }
    }
  }
  

  namespace  {
    namespace om.gfi {
      namespace utils {
        class com.gfi.utils.ResponseMessagesUtils {
        }
      }
    }
  }
  

  com.gfi.controller.AuthRestAPIs o-- com.gfi.security.jwt.JwtProvider : jwtProvider
  com.gfi.controller.AuthRestAPIs o-- com.gfi.message.response.JwtResponse : jwtresponse
  com.gfi.controller.AuthRestAPIs o-- com.gfi.dao.RoleRepository : roleRepository
  com.gfi.controller.AuthRestAPIs o-- com.gfi.model.User : user
  com.gfi.controller.AuthRestAPIs o-- com.gfi.dao.UserRepository : userRepository
  com.gfi.controller.AuthRestAPIs o-- com.gfi.service.Impl.UserServiceImpl : utilisateurService
  com.gfi.controller.DocumentController o-- com.gfi.dao.DocumentRepository : documentRepository
  com.gfi.controller.DocumentController o-- com.gfi.service.Impl.DocumentServiceImpl : documentService
  com.gfi.controller.DocumentController o-- com.gfi.service.Impl.RepertoireServiceImpl : repertoireService
  com.gfi.controller.DocumentController o-- com.gfi.mapper.DocumentMapper : documentMapper
  com.gfi.controller.DocumentController o-- com.gfi.mapper.RepertoireMapper : repertoireMapper
  com.gfi.controller.RepertoireController o-- com.gfi.mapper.RepertoireMapper : repertoireMapper
  com.gfi.controller.RepertoireController o-- com.gfi.service.Impl.RepertoireServiceImpl : repertoireService
  com.gfi.controller.UploadController o-- com.gfi.service.IStorageService : storageService
  com.gfi.controller.UserController o-- com.gfi.dao.UserRepository : userRepository
  com.gfi.dto.DocumentDTO o-- com.gfi.dto.RepertoireDTO : repertoire
  com.gfi.dto.Response.AllRepertoireResponseDTO -up-|> com.gfi.dto.Response.BaseResponseDTO
  com.gfi.dto.Response.DeplacerDocumentResponceDTO -up-|> com.gfi.dto.Response.BaseResponseDTO
  com.gfi.dto.Response.DeplacerDocumentResponceDTO o-- com.gfi.model.Document : document
  com.gfi.dto.Response.ImageResponseDTO -up-|> com.gfi.dto.Response.BaseResponseDTO
  com.gfi.mapper.DocumentMapperImpl .up.|> com.gfi.mapper.DocumentMapper
  com.gfi.mapper.DocumentMapperImpl o-- com.gfi.mapper.RepertoireMapper : repertoireMapper
  com.gfi.mapper.RepertoireMapperImpl .up.|> com.gfi.mapper.RepertoireMapper
  com.gfi.model.Document o-- com.gfi.model.Repertoire : repertoire
  com.gfi.model.Repertoire o-- com.gfi.model.User : user
  com.gfi.model.Role o-- com.gfi.model.RoleName : name
  com.gfi.model.RoleName .up.|> org.springframework.security.core.GrantedAuthority
  com.gfi.security.JwtTokenFilter -up-|> org.springframework.web.filter.GenericFilterBean
  com.gfi.security.JwtTokenFilter o-- com.gfi.security.JwtTokenProvider : jwtTokenProvider
  com.gfi.security.JwtTokenFilterConfigurer -up-|> org.springframework.security.config.annotation.SecurityConfigurerAdapter
  com.gfi.security.JwtTokenFilterConfigurer o-- com.gfi.security.JwtTokenProvider : jwtTokenProvider
  com.gfi.security.JwtTokenProvider o-- com.gfi.security.MyUserDetails : myUserDetails
  com.gfi.security.MyUserDetails .up.|> org.springframework.security.core.userdetails.UserDetailsService
  com.gfi.security.MyUserDetails o-- com.gfi.dao.UserRepository : userRepository
  com.gfi.security.WebSecurityConfig -up-|> org.springframework.security.config.annotation.web.configuration.WebSecurityConfigurerAdapter
  com.gfi.security.WebSecurityConfig o-- com.gfi.security.services.UserDetailsServiceImpl : userDetailsService
  com.gfi.security.WebSecurityConfig o-- com.gfi.security.jwt.JwtAuthEntryPoint : unauthorizedHandler
  com.gfi.security.jwt.JwtAuthEntryPoint .up.|> org.springframework.security.web.AuthenticationEntryPoint
  com.gfi.security.jwt.JwtAuthTokenFilter -up-|> org.springframework.web.filter.OncePerRequestFilter
  com.gfi.security.jwt.JwtAuthTokenFilter o-- com.gfi.security.jwt.JwtProvider : tokenProvider
  com.gfi.security.jwt.JwtAuthTokenFilter o-- com.gfi.security.services.UserDetailsServiceImpl : userDetailsService
  com.gfi.security.services.UserDetailsServiceImpl .up.|> org.springframework.security.core.userdetails.UserDetailsService
  com.gfi.security.services.UserDetailsServiceImpl o-- com.gfi.dao.UserRepository : userRepository
  com.gfi.security.services.UserPrinciple .up.|> org.springframework.security.core.userdetails.UserDetails
  com.gfi.service.Impl.DocumentServiceImpl .up.|> com.gfi.service.DocumentService
  com.gfi.service.Impl.DocumentServiceImpl o-- com.gfi.dao.DocumentRepository : documentRepository
  com.gfi.service.Impl.DocumentServiceImpl o-- com.gfi.constant.ApplicationConfig : path
  com.gfi.service.Impl.DocumentServiceImpl o-- com.gfi.dao.RepertoireRepository : repertoireRepository
  com.gfi.service.Impl.DocumentServiceImpl o-- com.gfi.service.Impl.RepertoireServiceImpl : repertoireservice
  com.gfi.service.Impl.DocumentServiceImpl o-- com.gfi.dao.UserRepository : userRepository
  com.gfi.service.Impl.RepertoireServiceImpl .up.|> com.gfi.service.RepertoireService
  com.gfi.service.Impl.RepertoireServiceImpl o-- com.gfi.dao.DocumentRepository : documentRepository
  com.gfi.service.Impl.RepertoireServiceImpl o-- com.gfi.dao.RepertoireRepository : repertoireRepository
  com.gfi.service.Impl.RepertoireServiceImpl o-- com.gfi.mapper.RepertoireMapper : repertoireMapper
  com.gfi.service.Impl.RepertoireServiceImpl o-- com.gfi.dao.UserRepository : userRepository
  com.gfi.service.Impl.StorageService .up.|> com.gfi.service.IStorageService
  com.gfi.service.Impl.StorageService o-- com.gfi.dao.UserRepository : userRepository
  com.gfi.service.Impl.UserServiceImpl .up.|> com.gfi.service.UserService
  com.gfi.service.Impl.UserServiceImpl o-- com.gfi.dao.UserRepository : utilisateurRepository
  com.gfi.service.Impl.UserServiceImpl o-- com.gfi.security.JwtTokenProvider : jwtTokenProvider


right footer


PlantUML diagram generated by SketchIt! (https://bitbucket.org/pmesmeur/sketch.it)
For more information about this tool, please contact philippe.mesmeur@gmail.com
endfooter

@enduml
