@startuml

title __RESPONSE's Class Diagram__\n

  namespace  {
    namespace om.gfi {
      namespace message.response {
        class com.gfi.message.response.JwtResponse {
            - authorities : Collection<? extends GrantedAuthority>
            - id : Long
            - token : String
            - type : String
            - username : String
            + JwtResponse()
            + getAccessToken()
            + getAuthorities()
            + getId()
            + getToken()
            + getTokenType()
            + getUsername()
            + setAccessToken()
            + setAuthorities()
            + setId()
            + setToken()
            + setTokenType()
            + setUsername()
        }
      }
    }
  }
  



right footer


PlantUML diagram generated by SketchIt! (https://bitbucket.org/pmesmeur/sketch.it)
For more information about this tool, please contact philippe.mesmeur@gmail.com
endfooter

@enduml
