@startuml

title __EXCEPTION's Class Diagram__\n

  namespace  {
    namespace om.gfi {
      namespace exception {
        class com.gfi.exception.FileStorageException {
            + FileStorageException()
            + FileStorageException()
        }
      }
    }
  }
  

  namespace  {
    namespace om.gfi {
      namespace exception {
        class com.gfi.exception.MyFileNotFoundException {
            + MyFileNotFoundException()
            + MyFileNotFoundException()
        }
      }
    }
  }
  

  namespace  {
    namespace om.gfi {
      namespace exception {
        class com.gfi.exception.NotFoundException {
            {static} - serialVersionUID : long
            + NotFoundException()
            + NotFoundException()
        }
      }
    }
  }
  



right footer


PlantUML diagram generated by SketchIt! (https://bitbucket.org/pmesmeur/sketch.it)
For more information about this tool, please contact philippe.mesmeur@gmail.com
endfooter

@enduml
