@startuml

title __SERVICE's Class Diagram__\n

  namespace  {
    namespace om.gfi {
      namespace service {
        interface com.gfi.service.DocumentService {
            {abstract} + DeleteDocument()
            {abstract} + EditeDocument()
            {abstract} + UploadDocument()
            {abstract} + deleteContentDirectory()
            {abstract} + deplacerDocument()
            {abstract} + detailDocument()
            {abstract} + getAllDocument()
            {abstract} + getFile()
            {abstract} + init()
            {abstract} + searchDocument()
            {abstract} + uploadFiles()
        }
      }
    }
  }
  

  namespace  {
    namespace om.gfi {
      namespace service {
        interface com.gfi.service.IStorageService {
            {abstract} + deleteAll()
            {abstract} + init()
            {abstract} + loadFile()
            {abstract} + store()
        }
      }
    }
  }
  

  namespace  {
    namespace om.gfi {
      namespace service {
        interface com.gfi.service.RepertoireService {
            {abstract} + DeleteDirectory()
            {abstract} + EditeDirectory()
            {abstract} + createDirectory()
            {abstract} + findAll()
            {abstract} + findByID()
            {abstract} + getAllRepertoire()
            {abstract} + getRepertoireids()
            {abstract} + searchByNameDoc()
        }
      }
    }
  }
  

  namespace  {
    namespace om.gfi {
      namespace service {
        interface com.gfi.service.UserService {
            {abstract} + deleteUser()
            {abstract} + findByEmail()
            {abstract} + findByEmailAndPassword()
            {abstract} + findById()
            {abstract} + findByUsername()
            {abstract} + getAllusers()
            {abstract} + getNubmerBookDoneOfUser()
            {abstract} + getUserImage()
            {abstract} + saveUser()
            {abstract} + signin()
            {abstract} + signup()
            {abstract} + updateImageName()
            {abstract} + updatePassword()
            {abstract} + updateUsername()
        }
      }
    }
  }
  



right footer


PlantUML diagram generated by SketchIt! (https://bitbucket.org/pmesmeur/sketch.it)
For more information about this tool, please contact philippe.mesmeur@gmail.com
endfooter

@enduml
